{
	"process_id" : 6134,
	"version" : "2020.3.25f1",
	"app_path" : "/Applications/Unity/Hub/Editor/2020.3.25f1/Unity.app",
	"app_contents_path" : "/Applications/Unity/Hub/Editor/2020.3.25f1/Unity.app/Contents"
}